Lab 10: Filtering Data
…
Swear words given in the movies of Quentin Tarantino:

Pick a dataset (feel free to delete the others from the Rmd file if you would like), and work on the instructions in the next section.

Instructions

This lab is similar to the last. Youll pick a dataset and then generate an analysis of that data using data visualizations. The difference here is that instead of a single plot, I would like you to construct 3-4 plots that together tell a linear story. Each plot should be separated by a sentence or two describing what the viewer should take away from the plot. Try to keep the plots similar in some way; perhaps each simply highlights a different subset of the data but has the same underlying layers.

Notice that each of the datasets for today are larger than you will probably be able to use. You will need to filter the data to a particular team, year, subset of curse words. You may further filter the data to highlight an even smaller subset of the data within each plot.

Analysis

This subset of data shows Which curse words were said in each movie between Django Unchained and Inglorious Basterds.

## # A tibble: 320 x 4
##                  movie  type     word minutes_in
##                  <chr> <chr>    <chr>      <dbl>
##  1 Inglorious Basterds  word     hell      22.20
##  2 Inglorious Basterds  word  goddamn      22.22
##  3 Inglorious Basterds  word  fucking      22.32
##  4 Inglorious Basterds  word    bitch      22.55
##  5 Inglorious Basterds  word  fucking      30.93
##  6 Inglorious Basterds  word  goddamn      31.05
##  7 Inglorious Basterds  word  goddamn      32.52
##  8 Inglorious Basterds  word      ass      32.65
##  9 Inglorious Basterds  word     fuck      32.97
## 10 Inglorious Basterds  word shitting      34.90
## # ... with 310 more rows
…
This graph of data and plot shows which curse words were said in the movie Django Unchained and at which moment in the movie they were said.

## # A tibble: 262 x 4
##               movie  type    word minutes_in
##               <chr> <chr>   <chr>      <dbl>
##  1 Django Unchained  word goddamn       7.23
##  2 Django Unchained  word goddamn       8.37
##  3 Django Unchained  word   bitch       8.38
##  4 Django Unchained  word    damn       8.65
##  5 Django Unchained  word fucking       8.87
##  6 Django Unchained  word    damn       8.88
##  7 Django Unchained  word  n-word       9.80
##  8 Django Unchained  word goddamn      10.07
##  9 Django Unchained  word    hell      10.53
## 10 Django Unchained  word  n-word      13.57
## # ... with 252 more rows
…
